How would higher education people vote
…
Income breakdown

anes_to_race_year = anes_use %>%
  filter(!is.na(race) & !is.na(turnout))%>%
  group_by(year, race)%>%
  count(turnout)%>%
  group_by(year, race)%>%
  mutate(
    prop=n/sum(n)
  )

anes_to_race_year

## # A tibble: 241 x 5
## # Groups:   year, race [87]
##    year  race                           turnout                         n   prop
##    <fct> <fct>                          <fct>                       <int>  <dbl>
##  1 1952  1. White non-Hispanic (1948-2~ 1. Not registered, and did~   205 0.141 
##  2 1952  1. White non-Hispanic (1948-2~ 2. Registered, but did not~   108 0.0743
##  3 1952  1. White non-Hispanic (1948-2~ 3. Voted (registered)        1140 0.785 
##  4 1952  2. Black non-Hispanic (1948-2~ 1. Not registered, and did~    97 0.618 
##  5 1952  2. Black non-Hispanic (1948-2~ 2. Registered, but did not~     8 0.0510
##  6 1952  2. Black non-Hispanic (1948-2~ 3. Voted (registered)          52 0.331 
##  7 1952  7. Non-white and non-black (1~ 2. Registered, but did not~     1 0.333 
##  8 1952  7. Non-white and non-black (1~ 3. Voted (registered)           2 0.667 
##  9 1956  1. White non-Hispanic (1948-2~ 1. Not registered, and did~   240 0.149 
## 10 1956  1. White non-Hispanic (1948-2~ 2. Registered, but did not~   139 0.0863
## # ... with 231 more rows

anes_use %>% filter(!is.na(region) & !is.na(education)) %>% group_by(year, region) %>% count(turnout) %>% group_by(year, region) %>% mutate(prop = n/sum(n))

## # A tibble: 268 x 5
## # Groups:   year, region [68]
##    year  region                             turnout                     n   prop
##    <fct> <fct>                              <fct>                   <int>  <dbl>
##  1 1952  1. Northeast (CT, ME, MA, NH, NJ,~ 1. Not registered, and~    43 0.0968
##  2 1952  1. Northeast (CT, ME, MA, NH, NJ,~ 2. Registered, but did~    17 0.0383
##  3 1952  1. Northeast (CT, ME, MA, NH, NJ,~ 3. Voted (registered)     329 0.741 
##  4 1952  1. Northeast (CT, ME, MA, NH, NJ,~ <NA>                       55 0.124 
##  5 1952  2. North Central (IL, IN, IA, KS,~ 1. Not registered, and~    47 0.0763
##  6 1952  2. North Central (IL, IN, IA, KS,~ 2. Registered, but did~    41 0.0666
##  7 1952  2. North Central (IL, IN, IA, KS,~ 3. Voted (registered)     491 0.797 
##  8 1952  2. North Central (IL, IN, IA, KS,~ <NA>                       37 0.0601
##  9 1952  3. South (AL, AR, DE, D.C., FL, G~ 1. Not registered, and~   176 0.348 
## 10 1952  3. South (AL, AR, DE, D.C., FL, G~ 2. Registered, but did~    46 0.0909
## # ... with 258 more rows
…
anes_use %>% filter(!is.na(turnout) & !is.na(education)) %>% select(year, turnout, education)

## # A tibble: 33,311 x 3
##    year  turnout                      education                                 
##    <fct> <fct>                        <fct>                                     
##  1 1952  3. Voted (registered)        3. 12 grades, diploma or equivalency      
##  2 1952  3. Voted (registered)        1. 8 grades or less ('grade school')      
##  3 1952  3. Voted (registered)        3. 12 grades, diploma or equivalency      
##  4 1952  3. Voted (registered)        2. 9-12 grades ('high school'), no diplom~
##  5 1952  3. Voted (registered)        4. 12 grades, diploma or equivalency plus~
##  6 1952  3. Voted (registered)        2. 9-12 grades ('high school'), no diplom~
##  7 1952  3. Voted (registered)        1. 8 grades or less ('grade school')      
##  8 1952  3. Voted (registered)        4. 12 grades, diploma or equivalency plus~
##  9 1952  1. Not registered, and did ~ 2. 9-12 grades ('high school'), no diplom~
## 10 1952  3. Voted (registered)        1. 8 grades or less ('grade school')      
## # ... with 33,301 more rows
…
